{
  "default": [
    {
      "expression": "*.facebook.com",
      "storeId": "default",
      "listType": "WHITE",
      "id": "S18wfbUpM",
      "cookieNames": []
    },
    {
      "expression": "*.github.com",
      "storeId": "default",
      "listType": "WHITE",
      "id": "SywKfZLTf",
      "cookieNames": []
    },
    {
      "expression": "*.google.com",
      "storeId": "default",
      "listType": "WHITE",
      "id": "Hk1HfWUaG",
      "cookieNames": []
    },
    {
      "expression": "*.reddit.com",
      "storeId": "default",
      "listType": "WHITE",
      "id": "BJW_M-U6G",
      "cookieNames": []
    },
    {
      "expression": "*.twitch.com",
      "storeId": "default",
      "listType": "WHITE",
      "id": "H1QsMWIaM",
      "cookieNames": []
    },
    {
      "expression": "*.twitch.tv",
      "storeId": "default",
      "listType": "WHITE",
      "id": "r16oMZLpz",
      "cookieNames": []
    },
    {
      "expression": "*.youtube.com",
      "storeId": "default",
      "listType": "WHITE",
      "id": "Skb8zWIaG",
      "cookieNames": []
    },
    {
      "expression": "facebook.com",
      "storeId": "default",
      "listType": "WHITE",
      "id": "SyRmzbLaz",
      "cookieNames": []
    },
    {
      "expression": "github.com",
      "storeId": "default",
      "listType": "WHITE",
      "id": "HJw_zWITz",
      "cookieNames": []
    },
    {
      "expression": "google.com",
      "storeId": "default",
      "listType": "WHITE",
      "id": "BJN4fWITM",
      "cookieNames": []
    },
    {
      "expression": "news.ycombinator.com",
      "storeId": "default",
      "listType": "WHITE",
      "id": "BJ-9GbLaG",
      "cookieNames": []
    },
    {
      "expression": "reddit.com",
      "storeId": "default",
      "listType": "WHITE",
      "id": "BJ6DMWIpf",
      "cookieNames": []
    },
    {
      "expression": "twitch.tv",
      "storeId": "default",
      "listType": "WHITE",
      "id": "r1Fjf-8aG",
      "cookieNames": []
    },
    {
      "expression": "twitter.com",
      "storeId": "default",
      "listType": "WHITE",
      "id": "S1_NGbU6M",
      "cookieNames": []
    }
  ]
}
